{
    "shapes":[ 
		[
			{"shape": 0},
			{"shape": 1},
			{"shape": 2},
			{"shape": 3},
			{"shape": 4},
			{"shape": 5},
			{"shape": 6}
		],
		[
			{"shape": 0},
			{"shape": 1}
		],
		[
			{"shape": 2}
		]
    ]
}